[
{"package":"gwenview","image":"file:///usr/share/muondiscover/gwenview.qml"},
{"package":"marble","image":"file:///usr/share/muondiscover/marble.qml"},
{"package":"virtualbox","image":"file:///usr/share/muondiscover/virtualbox.qml"}
]
